{
  "project_info": {
    "project_number": "436510054276",
    "firebase_url": "https://nearest-d2d35.firebaseio.com",
    "project_id": "nearest-d2d35",
    "storage_bucket": "nearest-d2d35.appspot.com"
  },
  "client": [
    {
      "client_info": {
        "mobilesdk_app_id": "1:436510054276:android:0df4c35f454b5998",
        "android_client_info": {
          "package_name": "places.nearest.tme"
        }
      },
      "oauth_client": [
        {
          "client_id": "436510054276-n1bu4ffmpjvmnphmccet84mum5h2cm4p.apps.googleusercontent.com",
          "client_type": 1,
          "android_info": {
            "package_name": "places.nearest.tme",
            "certificate_hash": "40721aad15fab0f8b6fdeba9c32cf2f07c0d4a30"
          }
        },
        {
          "client_id": "436510054276-u171o7clk9ldjmmcr6pbof4814iemjmm.apps.googleusercontent.com",
          "client_type": 3
        }
      ],
      "api_key": [
        {
          "current_key": "AIzaSyBcXAMq4abNdLbz7yXP1dSFc97bRRSCNzY"
        }
      ],
      "services": {
        "analytics_service": {
          "status": 1
        },
        "appinvite_service": {
          "status": 2,
          "other_platform_oauth_client": [
            {
              "client_id": "436510054276-u171o7clk9ldjmmcr6pbof4814iemjmm.apps.googleusercontent.com",
              "client_type": 3
            }
          ]
        },
        "ads_service": {
          "status": 2
        }
      }
    }
  ],
  "configuration_version": "1"
}